{
    "prepare_queue": {
        "installed": [],
        "uninstalled": []
    },
    "config_munge": {
        "files": {
            "framework": {
                "parents": {
                    "AssetsLibrary.framework": [
                        {
                            "xml": "false",
                            "count": 2
                        }
                    ],
                    "MobileCoreServices.framework": [
                        {
                            "xml": "false",
                            "count": 1
                        }
                    ],
                    "CoreGraphics.framework": [
                        {
                            "xml": "false",
                            "count": 1
                        }
                    ],
                    "SystemConfiguration.framework": [
                        {
                            "xml": "true",
                            "count": 1
                        }
                    ],
                    "AudioToolbox.framework": [
                        {
                            "xml": "true",
                            "count": 1
                        }
                    ]
                }
            },
            "config.xml": {
                "parents": {
                    "/*": [
                        {
                            "xml": "<feature name=\"File\"><param name=\"ios-package\" value=\"CDVFile\" /><param name=\"onload\" value=\"true\" /></feature>",
                            "count": 1
                        },
                        {
                            "xml": "<feature name=\"FileTransfer\"><param name=\"ios-package\" value=\"CDVFileTransfer\" /></feature>",
                            "count": 1
                        },
                        {
                            "xml": "<feature name=\"InAppBrowser\"><param name=\"ios-package\" value=\"CDVInAppBrowser\" /></feature>",
                            "count": 1
                        },
                        {
                            "xml": "<feature name=\"NetworkStatus\"><param name=\"ios-package\" value=\"CDVConnection\" /></feature>",
                            "count": 1
                        },
                        {
                            "xml": "<feature name=\"Notification\"><param name=\"ios-package\" value=\"CDVNotification\" /></feature>",
                            "count": 1
                        }
                    ]
                }
            }
        }
    },
    "installed_plugins": {
        "org.apache.cordova.file": {
            "PACKAGE_NAME": "com.ncontact.convergent"
        },
        "org.apache.cordova.file-transfer": {
            "PACKAGE_NAME": "com.ncontact.convergent"
        },
        "org.apache.cordova.inappbrowser": {
            "PACKAGE_NAME": "com.ncontact.convergent"
        },
        "org.apache.cordova.network-information": {
            "PACKAGE_NAME": "com.ncontact.convergent"
        },
        "org.apache.cordova.dialogs": {
            "PACKAGE_NAME": "com.ncontact.convergent"
        },
        "com.dawsonloudon.videoplayer": {
            "PACKAGE_NAME": "com.ncontact.convergent"
        }
    },
    "dependent_plugins": {}
}